%YAML 1.1
%TAG !u! tag:unity3d.com,2011:
--- !u!74 &7400000
AnimationClip:
  m_ObjectHideFlags: 0
  m_CorrespondingSourceObject: {fileID: 0}
  m_PrefabInstance: {fileID: 0}
  m_PrefabAsset: {fileID: 0}
  m_Name: GoldCoin
  serializedVersion: 6
  m_Legacy: 0
  m_Compressed: 0
  m_UseHighQualityCurve: 1
  m_RotationCurves: []
  m_CompressedRotationCurves: []
  m_EulerCurves: []
  m_PositionCurves: []
  m_ScaleCurves: []
  m_FloatCurves: []
  m_PPtrCurves:
  - curve:
    - time: 0
      value: {fileID: 21300000, guid: 22d3fe13c2a2fb34e8aa6f1200d742e8, type: 3}
    - time: 0.083333336
      value: {fileID: 21300000, guid: 6ba40c9a6669ac5478e5a58ec5355b5a, type: 3}
    - time: 0.16666667
      value: {fileID: 21300000, guid: d3318d009a874324ebe9a4512114daa3, type: 3}
    - time: 0.25
      value: {fileID: 21300000, guid: 4024d6f2169fba24cae88890183004e3, type: 3}
    - time: 0.33333334
      value: {fileID: 21300000, guid: 9d36c575c6bb91247b17242d9f9ebc63, type: 3}
    - time: 0.41666666
      value: {fileID: 21300000, guid: 5748cbbae03e8564e9bb3685af2401ec, type: 3}
    - time: 0.5
      value: {fileID: 21300000, guid: 68c6b969f80474a419782ea18519bf5d, type: 3}
    - time: 0.5833333
      value: {fileID: 21300000, guid: 5db55f184e3f86a46a1bd980d9bc8964, type: 3}
    - time: 0.6666667
      value: {fileID: 21300000, guid: 2624aa34727e3754e9a153fc32e5bb41, type: 3}
    - time: 0.75
      value: {fileID: 21300000, guid: 09df2a022cdcd3c449a7be24b805de26, type: 3}
    - time: 0.8333333
      value: {fileID: 21300000, guid: 8e5900bdfe0873f40a1d60dc50799bc1, type: 3}
    - time: 0.9166667
      value: {fileID: 21300000, guid: 522c32fa405675b41ac6c72370bd76ab, type: 3}
    - time: 1
      value: {fileID: 21300000, guid: 4c40027d3ffe8934589c7d218c88f4d9, type: 3}
    - time: 1.0833334
      value: {fileID: 21300000, guid: 34069358e21f7544c9e91dc49093e744, type: 3}
    - time: 1.1666666
      value: {fileID: 21300000, guid: 4a82604781f2ffa48a95f04b96dd0cb6, type: 3}
    - time: 1.25
      value: {fileID: 21300000, guid: 844f838b3f83d564b97705deaf733082, type: 3}
    - time: 1.3333334
      value: {fileID: 21300000, guid: 00f9aa3e90a36614c9c87471d2740849, type: 3}
    - time: 1.4166666
      value: {fileID: 21300000, guid: 6a3e79adaf99fe14ca35bb1a4f27612a, type: 3}
    - time: 1.5
      value: {fileID: 21300000, guid: 11d1ca52fb6185b4b8973e1753f738a5, type: 3}
    - time: 1.5833334
      value: {fileID: 21300000, guid: e271e2948b45bba4abcf4da8b96b7572, type: 3}
    - time: 1.6666666
      value: {fileID: 21300000, guid: c2c35d37073b5e943aadd2c87882d603, type: 3}
    - time: 1.75
      value: {fileID: 21300000, guid: 35ede1ad9c13d484fae5f0efb11c50a8, type: 3}
    - time: 1.8333334
      value: {fileID: 21300000, guid: fc6acbcfcee2cd848989de5e7940ba9c, type: 3}
    - time: 1.9166666
      value: {fileID: 21300000, guid: 2fdc29a6cb4a1e947936c6c550ad3796, type: 3}
    - time: 2
      value: {fileID: 21300000, guid: 99a11b2bc800bca4d8f9610937d01e93, type: 3}
    - time: 2.0833333
      value: {fileID: 21300000, guid: 808e3c40fbd484940b07495122444157, type: 3}
    - time: 2.1666667
      value: {fileID: 21300000, guid: 56ecbfe57947a21459358b66565d8230, type: 3}
    - time: 2.25
      value: {fileID: 21300000, guid: d1157eeffd03e764a973ebe7936b356f, type: 3}
    - time: 2.3333333
      value: {fileID: 21300000, guid: b44cea5f03ca35b489b6767b72d8e71e, type: 3}
    - time: 2.4166667
      value: {fileID: 21300000, guid: fd11859d23d11764b872f0578576ecdb, type: 3}
    attribute: m_Sprite
    path: 
    classID: 212
    script: {fileID: 0}
  m_SampleRate: 12
  m_WrapMode: 0
  m_Bounds:
    m_Center: {x: 0, y: 0, z: 0}
    m_Extent: {x: 0, y: 0, z: 0}
  m_ClipBindingConstant:
    genericBindings:
    - serializedVersion: 2
      path: 0
      attribute: 0
      script: {fileID: 0}
      typeID: 212
      customType: 23
      isPPtrCurve: 1
    pptrCurveMapping:
    - {fileID: 21300000, guid: 22d3fe13c2a2fb34e8aa6f1200d742e8, type: 3}
    - {fileID: 21300000, guid: 6ba40c9a6669ac5478e5a58ec5355b5a, type: 3}
    - {fileID: 21300000, guid: d3318d009a874324ebe9a4512114daa3, type: 3}
    - {fileID: 21300000, guid: 4024d6f2169fba24cae88890183004e3, type: 3}
    - {fileID: 21300000, guid: 9d36c575c6bb91247b17242d9f9ebc63, type: 3}
    - {fileID: 21300000, guid: 5748cbbae03e8564e9bb3685af2401ec, type: 3}
    - {fileID: 21300000, guid: 68c6b969f80474a419782ea18519bf5d, type: 3}
    - {fileID: 21300000, guid: 5db55f184e3f86a46a1bd980d9bc8964, type: 3}
    - {fileID: 21300000, guid: 2624aa34727e3754e9a153fc32e5bb41, type: 3}
    - {fileID: 21300000, guid: 09df2a022cdcd3c449a7be24b805de26, type: 3}
    - {fileID: 21300000, guid: 8e5900bdfe0873f40a1d60dc50799bc1, type: 3}
    - {fileID: 21300000, guid: 522c32fa405675b41ac6c72370bd76ab, type: 3}
    - {fileID: 21300000, guid: 4c40027d3ffe8934589c7d218c88f4d9, type: 3}
    - {fileID: 21300000, guid: 34069358e21f7544c9e91dc49093e744, type: 3}
    - {fileID: 21300000, guid: 4a82604781f2ffa48a95f04b96dd0cb6, type: 3}
    - {fileID: 21300000, guid: 844f838b3f83d564b97705deaf733082, type: 3}
    - {fileID: 21300000, guid: 00f9aa3e90a36614c9c87471d2740849, type: 3}
    - {fileID: 21300000, guid: 6a3e79adaf99fe14ca35bb1a4f27612a, type: 3}
    - {fileID: 21300000, guid: 11d1ca52fb6185b4b8973e1753f738a5, type: 3}
    - {fileID: 21300000, guid: e271e2948b45bba4abcf4da8b96b7572, type: 3}
    - {fileID: 21300000, guid: c2c35d37073b5e943aadd2c87882d603, type: 3}
    - {fileID: 21300000, guid: 35ede1ad9c13d484fae5f0efb11c50a8, type: 3}
    - {fileID: 21300000, guid: fc6acbcfcee2cd848989de5e7940ba9c, type: 3}
    - {fileID: 21300000, guid: 2fdc29a6cb4a1e947936c6c550ad3796, type: 3}
    - {fileID: 21300000, guid: 99a11b2bc800bca4d8f9610937d01e93, type: 3}
    - {fileID: 21300000, guid: 808e3c40fbd484940b07495122444157, type: 3}
    - {fileID: 21300000, guid: 56ecbfe57947a21459358b66565d8230, type: 3}
    - {fileID: 21300000, guid: d1157eeffd03e764a973ebe7936b356f, type: 3}
    - {fileID: 21300000, guid: b44cea5f03ca35b489b6767b72d8e71e, type: 3}
    - {fileID: 21300000, guid: fd11859d23d11764b872f0578576ecdb, type: 3}
  m_AnimationClipSettings:
    serializedVersion: 2
    m_AdditiveReferencePoseClip: {fileID: 0}
    m_AdditiveReferencePoseTime: 0
    m_StartTime: 0
    m_StopTime: 2.5
    m_OrientationOffsetY: 0
    m_Level: 0
    m_CycleOffset: 0
    m_HasAdditiveReferencePose: 0
    m_LoopTime: 1
    m_LoopBlend: 0
    m_LoopBlendOrientation: 0
    m_LoopBlendPositionY: 0
    m_LoopBlendPositionXZ: 0
    m_KeepOriginalOrientation: 0
    m_KeepOriginalPositionY: 1
    m_KeepOriginalPositionXZ: 0
    m_HeightFromFeet: 0
    m_Mirror: 0
  m_EditorCurves: []
  m_EulerEditorCurves: []
  m_HasGenericRootTransform: 0
  m_HasMotionFloatCurves: 0
  m_Events: []
